<?xml version="1.0" encoding="UTF-8" standalone="no"?>
<svg width="18px" height="18px" viewBox="0 0 18 18" version="1.1" xmlns="http://www.w3.org/2000/svg" xmlns:xlink="http://www.w3.org/1999/xlink">
    <!-- Generator: Sketch 3.6.1 (26313) - http://www.bohemiancoding.com/sketch -->
    <title>refresh</title>
    <desc>Created with Sketch.</desc>
    <defs></defs>
    <g id="standard-icons" stroke="none" stroke-width="1" fill="none" fill-rule="evenodd">
        <g id="refresh" fill="#5C5C5C">
            <path d="M16.099,6.5074 L13.293,2.3914 C13.052,1.8404 12.427,1.8904 12.137,2.4204 L11.47,3.6434 C10.397,3.0304 9.2,2.7174 8,2.7174 L8,2.7134 C7.348,2.7134 6.72,2.8094 6.122,2.9774 C6.077,2.9884 6.032,2.9974 5.988,3.0114 C5.846,3.0544 5.707,3.1064 5.569,3.1574 C5.489,3.1874 5.407,3.2134 5.327,3.2464 C5.224,3.2884 5.125,3.3384 5.025,3.3864 C4.914,3.4384 4.802,3.4874 4.693,3.5464 C4.627,3.5814 4.564,3.6234 4.498,3.6614 C4.363,3.7394 4.228,3.8174 4.097,3.9044 C4.066,3.9264 4.037,3.9504 4.006,3.9724 C3.671,4.2054 3.349,4.4654 3.05,4.7644 C2.75,5.0644 2.489,5.3874 2.255,5.7244 C2.235,5.7534 2.211,5.7814 2.191,5.8114 C2.103,5.9424 2.024,6.0794 1.945,6.2154 C1.908,6.2794 1.868,6.3414 1.832,6.4064 C1.773,6.5174 1.723,6.6314 1.67,6.7434 C1.623,6.8424 1.575,6.9394 1.533,7.0394 C1.499,7.1224 1.472,7.2074 1.44,7.2914 C1.391,7.4264 1.34,7.5614 1.298,7.6994 C1.283,7.7484 1.273,7.7994 1.26,7.8494 C1.212,8.0224 1.166,8.1954 1.132,8.3744 C1.131,8.3784 1.13,8.3824 1.13,8.3864 C1.047,8.8164 1,9.2594 1,9.7134 C1,10.1614 1.046,10.5984 1.127,11.0234 C1.129,11.0334 1.13,11.0434 1.132,11.0544 C1.165,11.2274 1.21,11.3964 1.256,11.5644 C1.271,11.6184 1.282,11.6744 1.299,11.7304 C1.339,11.8624 1.388,11.9904 1.435,12.1204 C1.468,12.2104 1.498,12.3014 1.534,12.3904 C1.573,12.4834 1.618,12.5714 1.66,12.6624 C1.717,12.7834 1.771,12.9054 1.835,13.0254 C1.864,13.0784 1.897,13.1294 1.928,13.1824 C2.012,13.3304 2.098,13.4784 2.195,13.6204 C2.203,13.6324 2.211,13.6434 2.219,13.6544 C2.461,14.0094 2.735,14.3494 3.05,14.6634 C3.363,14.9774 3.701,15.2494 4.054,15.4904 C4.067,15.4994 4.079,15.5094 4.092,15.5184 C4.234,15.6134 4.381,15.6994 4.529,15.7834 C4.582,15.8154 4.634,15.8494 4.689,15.8784 C4.807,15.9414 4.928,15.9954 5.049,16.0524 C5.14,16.0954 5.229,16.1404 5.323,16.1794 C5.411,16.2154 5.501,16.2444 5.591,16.2764 C5.721,16.3254 5.851,16.3744 5.984,16.4144 C6.038,16.4304 6.092,16.4414 6.145,16.4554 C6.315,16.5024 6.485,16.5474 6.66,16.5814 C6.667,16.5824 6.675,16.5834 6.683,16.5844 C7.11,16.6664 7.549,16.7134 8,16.7134 C8.444,16.7134 8.877,16.6674 9.299,16.5874 C9.313,16.5844 9.328,16.5834 9.342,16.5804 C9.509,16.5484 9.672,16.5054 9.834,16.4614 C9.896,16.4454 9.958,16.4324 10.019,16.4134 C10.144,16.3754 10.264,16.3294 10.385,16.2854 C10.484,16.2494 10.584,16.2174 10.682,16.1774 C10.763,16.1434 10.842,16.1034 10.922,16.0664 C11.055,16.0044 11.187,15.9454 11.316,15.8754 C11.356,15.8544 11.393,15.8284 11.432,15.8074 C11.975,15.5014 12.488,15.1244 12.95,14.6634 L12.947,14.6604 C14.214,13.3934 15,11.6434 15,9.7134 L12.999,9.7124 C13,11.2794 12.261,12.6624 11.129,13.5804 C11.013,13.6744 10.904,13.7814 10.782,13.8634 C10.627,13.9684 10.455,14.0454 10.288,14.1324 C10.163,14.1964 10.044,14.2754 9.915,14.3284 C9.754,14.3954 9.58,14.4354 9.41,14.4844 C9.265,14.5274 9.123,14.5844 8.975,14.6134 C8.731,14.6624 8.478,14.6784 8.224,14.6904 C8.068,14.6964 7.915,14.6964 7.76,14.6884 C7.511,14.6764 7.263,14.6604 7.024,14.6134 C6.875,14.5844 6.732,14.5264 6.586,14.4834 C6.417,14.4344 6.245,14.3954 6.084,14.3284 C5.95,14.2724 5.825,14.1914 5.695,14.1234 C5.535,14.0394 5.369,13.9654 5.219,13.8644 C5.065,13.7614 4.925,13.6294 4.781,13.5074 C4.584,13.3394 4.401,13.1594 4.232,12.9644 C4.099,12.8094 3.957,12.6574 3.846,12.4904 C3.757,12.3584 3.693,12.2114 3.618,12.0714 C3.538,11.9214 3.446,11.7784 3.382,11.6224 C3.328,11.4924 3.299,11.3514 3.255,11.2154 C3.2,11.0374 3.133,10.8624 3.097,10.6804 C3.07,10.5404 3.069,10.3924 3.054,10.2484 C3.016,9.8914 3.016,9.5344 3.054,9.1784 C3.069,9.0344 3.07,8.8864 3.097,8.7464 C3.133,8.5644 3.2,8.3894 3.255,8.2114 C3.299,8.0754 3.328,7.9344 3.382,7.8044 C3.446,7.6494 3.538,7.5044 3.618,7.3554 C3.694,7.2154 3.758,7.0664 3.846,6.9364 C3.961,6.7634 4.106,6.6064 4.246,6.4464 C4.397,6.2724 4.559,6.1114 4.732,5.9594 C4.893,5.8204 5.049,5.6754 5.222,5.5604 C5.353,5.4714 5.5,5.4074 5.64,5.3324 C5.79,5.2524 5.935,5.1594 6.09,5.0964 C6.22,5.0424 6.36,5.0134 6.495,4.9704 C6.674,4.9134 6.85,4.8474 7.033,4.8114 C7.171,4.7834 7.318,4.7834 7.46,4.7684 C8.505,4.6544 9.571,4.8654 10.505,5.4084 L9.963,6.4024 C9.673,6.9344 9.97,7.4864 10.563,7.3914 L15.412,7.4534 C15.986,7.4144 16.291,6.9454 16.099,6.5074" id="Fill-1"></path>
        </g>
    </g>
</svg>