<?xml version="1.0" encoding="UTF-8" standalone="no"?>
<svg width="18px" height="18px" viewBox="0 0 18 18" version="1.1" xmlns="http://www.w3.org/2000/svg" xmlns:xlink="http://www.w3.org/1999/xlink">
    <!-- Generator: Sketch 3.6.1 (26313) - http://www.bohemiancoding.com/sketch -->
    <title>horiz-center-align</title>
    <desc>Created with Sketch.</desc>
    <defs></defs>
    <g id="standard-icons" stroke="none" stroke-width="1" fill="none" fill-rule="evenodd">
        <g id="horiz-center-align" fill="#5C5C5C">
            <path d="M2,8 L2,6.5 C2,5.121 3.121,4 4.5,4 C5.879,4 7,5.121 7,6.5 L7,8 L9,8 L9,10 L7,10 L7,11.5 C7,12.879 5.879,14 4.5,14 C3.121,14 2,12.879 2,11.5 L2,10 L0.99,10 C0.443,10 0,9.557 0,9.01 L0,8.99 C0,8.443 0.443,8 0.99,8 L2,8 Z M17.01,8 L16,8 L16,10 L17.01,10 C17.557,10 18,9.557 18,9.01 L18,8.99 C18,8.443 17.557,8 17.01,8 L17.01,8 Z M13.5,3 C13.775,3 14,3.225 14,3.5 L14,14.5 C14,14.775 13.775,15 13.5,15 L11.5,15 C11.225,15 11,14.775 11,14.5 L11,3.5 C11,3.225 11.225,3 11.5,3 L13.5,3 Z M13.5,1 L11.5,1 C10.122,1 9,2.122 9,3.5 L9,14.5 C9,15.879 10.122,17 11.5,17 L13.5,17 C14.878,17 16,15.879 16,14.5 L16,3.5 C16,2.122 14.878,1 13.5,1 L13.5,1 Z" id="Page-1"></path>
        </g>
    </g>
</svg>