<?xml version="1.0" encoding="UTF-8" standalone="no"?>
<svg width="14px" height="14px" viewBox="0 0 14 14" version="1.1" xmlns="http://www.w3.org/2000/svg" xmlns:xlink="http://www.w3.org/1999/xlink">
    <!-- Generator: Sketch 3.6.1 (26313) - http://www.bohemiancoding.com/sketch -->
    <title>contains</title>
    <desc>Created with Sketch.</desc>
    <defs>
        <path id="path-1" d="M0,14 L14,14 L14,0 L0,0 L0,14 Z"></path>
    </defs>
    <g id="grid-filtering-icons" stroke="none" stroke-width="1" fill="none" fill-rule="evenodd">
        <g id="contains">
            <g id="Page-1">
                <path d="M3,12 L2,12 L2,2 L3,2 C3.552,2 4,1.552 4,1 C4,0.448 3.552,0 3,0 L1,0 C0.448,0 0,0.448 0,1 L0,13 C0,13.552 0.448,14 1,14 L3,14 C3.552,14 4,13.552 4,13 C4,12.448 3.552,12 3,12 L3,12 Z" id="Fill-1" fill="#5C5C5C"></path>
                <path d="M13,0 L11,0 C10.448,0 10,0.448 10,1 C10,1.552 10.448,2 11,2 L12,2 L12,12 L11,12 C10.448,12 10,12.448 10,13 C10,13.552 10.448,14 11,14 L13,14 C13.552,14 14,13.552 14,13 L14,1 C14,0.448 13.552,0 13,0" id="Fill-3" fill="#5C5C5C"></path>
                <mask id="mask-2" fill="white">
                    <use xlink:href="#path-1"></use>
                </mask>
                <g id="Clip-6"></g>
                <path d="M6,7 L8,7 L8,5 L6,5 L6,7 Z M10,4 C10,3.448 9.552,3 9,3 L5,3 C4.448,3 4,3.448 4,4 L4,10 C4,10.552 4.448,11 5,11 L6,11 L6,9 L8,9 L8,11 L9,11 C9.552,11 10,10.552 10,10 L10,4 Z" id="Fill-5" fill="#5C5C5C" mask="url(#mask-2)"></path>
            </g>
        </g>
    </g>
</svg>