<?xml version="1.0" encoding="utf-8"?>
<!-- Generator: Adobe Illustrator 22.1.0, SVG Export Plug-In . SVG Version: 6.00 Build 0)  -->
<svg version="1.1" id="Layer_1" xmlns="http://www.w3.org/2000/svg" xmlns:xlink="http://www.w3.org/1999/xlink" x="0px" y="0px"
	 width="18px" height="18px" viewBox="0 0 18 18" style="enable-background:new 0 0 18 18;" xml:space="preserve">
<style type="text/css">
	.st0{fill:#5C5C5C;}
</style>
<path class="st0" d="M0.9,17.4c0.4,0,0.8-0.3,0.8-0.6c0.8-3.5,3.2-5.3,7.3-5.9V13c0,1,1,1.6,1.8,1l6.8-5.6c0.6-0.5,0.6-1.5,0-2
	l-6.7-5.6C10,0.2,9,0.8,9,1.9v2.4C3.8,5.3,0.3,9.4,0,16.6C0,17,0.4,17.4,0.9,17.4"/>
</svg>
