<?xml version="1.0" encoding="UTF-8" standalone="no"?>
<svg width="14px" height="14px" viewBox="0 0 14 14" version="1.1" xmlns="http://www.w3.org/2000/svg" xmlns:xlink="http://www.w3.org/1999/xlink">
    <!-- Generator: Sketch 3.6.1 (26313) - http://www.bohemiancoding.com/sketch -->
    <title>is-not-empty</title>
    <desc>Created with Sketch.</desc>
    <defs></defs>
    <g id="grid-filtering-icons" stroke="none" stroke-width="1" fill="none" fill-rule="evenodd">
        <g id="is-not-empty" fill="#5C5C5C">
            <g id="Page-1">
                <path d="M10,7 C10,5.343 8.657,4 7,4 C5.343,4 4,5.343 4,7 C4,8.657 5.343,10 7,10 C8.657,10 10,8.657 10,7" id="Fill-1"></path>
                <path d="M7,2 C4.243,2 2,4.243 2,7 C2,9.757 4.243,12 7,12 C9.757,12 12,9.757 12,7 C12,4.243 9.757,2 7,2 M7,14 C3.14,14 0,10.859 0,7 C0,3.141 3.14,0 7,0 C10.86,0 14,3.141 14,7 C14,10.859 10.86,14 7,14" id="Fill-3"></path>
            </g>
        </g>
    </g>
</svg>