<?xml version="1.0" encoding="UTF-8" standalone="no"?>
<svg width="18px" height="18px" viewBox="0 0 18 18" version="1.1" xmlns="http://www.w3.org/2000/svg" xmlns:xlink="http://www.w3.org/1999/xlink">
    <!-- Generator: Sketch 3.6.1 (26313) - http://www.bohemiancoding.com/sketch -->
    <title>collapse-context-app-tray@1x</title>
    <desc>Created with Sketch.</desc>
    <defs></defs>
    <g id="standard-icons" stroke="none" stroke-width="1" fill="none" fill-rule="evenodd">
        <g id="collapse-context-app-tray" fill="#5C5C5C">
            <path d="M15.0002,15.0002 C14.7442,15.0002 14.4882,14.9022 14.2932,14.7072 L9.2932,9.7072 C8.9022,9.3162 8.9022,8.6842 9.2932,8.2932 L14.2932,3.2932 C14.6842,2.9022 15.3162,2.9022 15.7072,3.2932 C16.0982,3.6842 16.0982,4.3162 15.7072,4.7072 L11.4142,9.0002 L15.7072,13.2932 C16.0982,13.6842 16.0982,14.3162 15.7072,14.7072 C15.5122,14.9022 15.2562,15.0002 15.0002,15.0002 M9.0002,15.0002 C8.7442,15.0002 8.4882,14.9022 8.2932,14.7072 L3.2932,9.7072 C2.9022,9.3162 2.9022,8.6842 3.2932,8.2932 L8.2932,3.2932 C8.6842,2.9022 9.3162,2.9022 9.7072,3.2932 C10.0982,3.6842 10.0982,4.3162 9.7072,4.7072 L5.4142,9.0002 L9.7072,13.2932 C10.0982,13.6842 10.0982,14.3162 9.7072,14.7072 C9.5122,14.9022 9.2562,15.0002 9.0002,15.0002" id="Fill-1"></path>
        </g>
    </g>
</svg>