<?xml version="1.0" encoding="UTF-8" standalone="no"?>
<svg width="18px" height="18px" viewBox="0 0 18 18" version="1.1" xmlns="http://www.w3.org/2000/svg" xmlns:xlink="http://www.w3.org/1999/xlink">
    <!-- Generator: Sketch 3.6.1 (26313) - http://www.bohemiancoding.com/sketch -->
    <title>heart-outlined</title>
    <desc>Created with Sketch.</desc>
    <defs></defs>
    <g id="standard-icons" stroke="none" stroke-width="1" fill="none" fill-rule="evenodd">
        <g id="heart-outlined" fill="#5C5C5C">
            <path d="M13.0282,1 C11.7482,1 10.4692,1.488 9.4932,2.464 C8.5162,1.488 7.2372,1 5.9572,1 C4.5272,1 3.0982,1.609 2.0912,2.828 C0.4282,4.842 0.7272,7.841 2.5732,9.688 L8.7852,15.899 C8.9812,16.095 9.2372,16.192 9.4932,16.192 C9.7482,16.192 10.0042,16.095 10.2002,15.899 L16.4122,9.688 C18.2582,7.841 18.5572,4.842 16.8942,2.828 C15.8882,1.609 14.4582,1 13.0282,1 M13.0282,3 C13.9272,3 14.7742,3.402 15.3522,4.102 C16.3202,5.274 16.1642,7.106 14.9982,8.273 L9.4932,13.778 L3.9882,8.273 C2.8212,7.106 2.6652,5.274 3.6332,4.102 C4.2112,3.402 5.0582,3 5.9572,3 C6.7582,3 7.5122,3.312 8.0782,3.879 L9.4932,5.293 L10.9072,3.879 C11.4732,3.312 12.2272,3 13.0282,3" id="Fill-1"></path>
        </g>
    </g>
</svg>