<?xml version="1.0" encoding="UTF-8" standalone="no"?>
<svg width="18px" height="18px" viewBox="0 0 18 18" version="1.1" xmlns="http://www.w3.org/2000/svg" xmlns:xlink="http://www.w3.org/1999/xlink">
    <!-- Generator: Sketch 3.6.1 (26313) - http://www.bohemiancoding.com/sketch -->
    <title>trash</title>
    <desc>Created with Sketch.</desc>
    <defs></defs>
    <g id="standard-icons" stroke="none" stroke-width="1" fill="none" fill-rule="evenodd">
        <g id="trash" fill="#5C5C5C">
            <path d="M3.722,16.328 C3.882,17.293 4.717,18 5.694,18 L12.306,18 C13.283,18 14.118,17.293 14.278,16.328 L15,6 L3,6 L3.722,16.328 Z M10,9.5 C10,9.224 10.224,9 10.5,9 L11.5,9 C11.776,9 12,9.224 12,9.5 L12,14.5 C12,14.775 11.776,15 11.5,15 L10.5,15 C10.224,15 10,14.775 10,14.5 L10,9.5 Z M6,9.5 C6,9.224 6.224,9 6.5,9 L7.5,9 C7.776,9 8,9.224 8,9.5 L8,14.5 C8,14.775 7.776,15 7.5,15 L6.5,15 C6.224,15 6,14.775 6,14.5 L6,9.5 Z M16,2 L12,2 C12,0.895 11.105,0 10,0 L8,0 C6.895,0 6,0.895 6,2 L2,2 C1.448,2 1,2.447 1,3 C1,3.553 1.448,4 2,4 L16,4 C16.552,4 17,3.553 17,3 C17,2.447 16.552,2 16,2 L16,2 Z" id="Page-1"></path>
        </g>
    </g>
</svg>