<?xml version="1.0" encoding="UTF-8" standalone="no"?>
<svg width="18px" height="18px" viewBox="0 0 18 18" version="1.1" xmlns="http://www.w3.org/2000/svg" xmlns:xlink="http://www.w3.org/1999/xlink">
    <!-- Generator: Sketch 3.6.1 (26313) - http://www.bohemiancoding.com/sketch -->
    <title>check-box</title>
    <desc>Created with Sketch.</desc>
    <defs></defs>
    <g id="standard-icons" stroke="none" stroke-width="1" fill="none" fill-rule="evenodd">
        <g id="check-box" fill="#5C5C5C">
            <path d="M9.063,13 C8.809,13 8.555,12.904 8.36,12.712 L4.297,8.711 C3.904,8.323 3.9,7.69 4.289,7.298 C4.676,6.903 5.31,6.901 5.703,7.289 L9.056,10.588 L16.291,3.295 C16.681,2.905 17.313,2.902 17.705,3.29 C18.097,3.681 18.099,4.314 17.709,4.705 L9.772,12.705 C9.576,12.901 9.319,13 9.063,13 M15,10 C14.448,10 14,10.447 14,11 L14,14.599 C14,14.988 13.551,15 13.5,15 L3.5,15 C3.449,15 3,14.988 3,14.599 L3,4.5 C3,4.225 3.224,4 3.5,4 L13,4 C13.552,4 14,3.553 14,3 C14,2.447 13.552,2 13,2 L3.5,2 C2.122,2 1,3.121 1,4.5 L1,14.599 C1,15.945 2.098,17 3.5,17 L13.5,17 C14.902,17 16,15.945 16,14.599 L16,11 C16,10.447 15.552,10 15,10" id="Fill-1"></path>
        </g>
    </g>
</svg>