<?xml version="1.0" encoding="UTF-8"?>
<svg width="31px" height="60px" viewBox="0 0 31 60" version="1.1" xmlns="http://www.w3.org/2000/svg" xmlns:xlink="http://www.w3.org/1999/xlink">
    <!-- Generator: Sketch 51.3 (57544) - http://www.bohemiancoding.com/sketch -->
    <title>empty-state</title>
    <desc>Created with Sketch.</desc>
    <defs>
        <polyline id="path-1" points="0 0.226 31 0.226 31 60 0 60"></polyline>
    </defs>
    <g id="Page-1" stroke="none" stroke-width="1" fill="none" fill-rule="evenodd">
        <g id="generic-empty-state" transform="translate(-17.000000, -3.000000)">
            <g id="empty-state" transform="translate(17.000000, 3.000000)">
                <g>
                    <g id="Group-3">
                        <mask id="mask-2" fill="white">
                            <use xlink:href="#path-1"></use>
                        </mask>
                        <g id="Clip-2"></g>
                        <path d="M14.502,33.0527 C17.066,33.0527 19.175,35.1607 19.175,37.7257 C19.175,40.2897 17.066,42.3997 14.502,42.3997 C11.938,42.3997 9.828,40.2897 9.828,37.7257 C9.828,35.1607 11.938,33.0527 14.502,33.0527 M14.787,0.2257 C22.082,0.2257 29.263,3.5877 29.263,11.6227 C29.263,19.0317 20.771,21.8817 18.947,24.5607 C17.579,26.5557 18.035,29.3477 14.273,29.3477 C11.823,29.3477 10.626,27.3537 10.626,25.5297 C10.626,18.7467 20.6,17.2087 20.6,11.6227 C20.6,8.5457 18.548,6.7227 15.129,6.7227 C7.834,6.7227 10.684,14.2447 5.155,14.2447 C3.16,14.2447 1.45,13.0477 1.45,10.7687 C1.45,5.1837 7.834,0.2257 14.787,0.2257" id="Fill-1" fill="#368AC0" mask="url(#mask-2)"></path>
                    </g>
                    <path d="M31,57 C31,58.657 24.06,60 15.5,60 C6.94,60 0,58.657 0,57 C0,55.343 6.94,54 15.5,54 C24.06,54 31,55.343 31,57" id="Fill-4" fill="#8DC9E6"></path>
                </g>
            </g>
        </g>
    </g>
</svg>