<?xml version="1.0" encoding="UTF-8" standalone="no"?>
<svg width="18px" height="18px" viewBox="0 0 18 18" version="1.1" xmlns="http://www.w3.org/2000/svg" xmlns:xlink="http://www.w3.org/1999/xlink">
    <!-- Generator: Sketch 3.6.1 (26313) - http://www.bohemiancoding.com/sketch -->
    <title>new-document</title>
    <desc>Created with Sketch.</desc>
    <defs></defs>
    <g id="standard-icons" stroke="none" stroke-width="1" fill="none" fill-rule="evenodd">
        <g id="new-document" fill="#5C5C5C">
            <path d="M15.414,3.414 L12.586,0.586 C12.211,0.211 11.702,0 11.171,0 L4.5,0 C3.122,0 2,1.121 2,2.5 L2,15.5 C2,16.879 3.122,18 4.5,18 L13.5,18 C14.878,18 16,16.879 16,15.5 L16,4.828 C16,4.298 15.789,3.789 15.414,3.414 L15.414,3.414 Z M14,15.5 C14,15.776 13.776,16 13.5,16 L4.5,16 C4.224,16 4,15.776 4,15.5 L4,2.5 C4,2.224 4.224,2 4.5,2 L10,2 L10,5 C10,5.55 10.45,6 11,6 L14,6 L14,15.5 Z" id="Fill-1"></path>
            <path d="M8,9 L8,7.99 C8,7.443 8.443,7 8.99,7 L9.01,7 C9.557,7 10,7.443 10,7.99 L10,9 L11.01,9 C11.557,9 12,9.443 12,9.99 L12,10.01 C12,10.557 11.557,11 11.01,11 L10,11 L10,12.01 C10,12.557 9.557,13 9.01,13 L8.99,13 C8.443,13 8,12.557 8,12.01 L8,11 L6.99,11 C6.443,11 6,10.557 6,10.01 L6,9.99 C6,9.443 6.443,9 6.99,9 L8,9 Z" id="Fill-3"></path>
        </g>
    </g>
</svg>