<?xml version="1.0" encoding="utf-8"?>
<!-- Generator: Adobe Illustrator 22.1.0, SVG Export Plug-In . SVG Version: 6.00 Build 0)  -->
<svg version="1.1" id="Layer_1" xmlns="http://www.w3.org/2000/svg" xmlns:xlink="http://www.w3.org/1999/xlink" x="0px" y="0px"
	 width="18px" height="18px" viewBox="0 0 18 18" style="enable-background:new 0 0 18 18;" xml:space="preserve">
<style type="text/css">
	.st0{fill:#5C5C5C;}
</style>
<g>
	<path id="XMLID_1340_" class="st0" d="M3,2c0.5,0,1-0.5,1-1S3.5,0,3,0H2.5C1.1,0,0,1.1,0,2.5V3c0,0.5,0.4,1,1,1s1-0.5,1-1
		C2,3,1.9,1.9,3,2z"/>
	<path id="XMLID_1337_" class="st0" d="M2,15c0-0.6-0.5-1-1-1s-1,0.4-1,1v0.5C0,16.9,1.1,18,2.5,18H3c0.5,0,1-0.5,1-1
		c0-0.6-0.5-1-1-1C3,16,1.9,16.1,2,15z"/>
	<path id="XMLID_1336_" class="st0" d="M1,10L1,10c0.5,0,1,0.4,1,1v1c0,0.5-0.5,1-1,1l0,0c-0.6,0-1-0.5-1-1v-1C0,10.4,0.4,10,1,10z"
		/>
	<path id="XMLID_1334_" class="st0" d="M1,5L1,5c0.5,0,1,0.5,1,1v1c0,0.6-0.5,1-1,1l0,0C0.4,8,0,7.5,0,7V6C0,5.4,0.4,5,1,5z"/>
	<path id="XMLID_1333_" class="st0" d="M15,2c-0.5,0-1-0.5-1-1s0.5-1,1-1h0.5C16.9,0,18,1.1,18,2.5V3c0,0.5-0.5,1-1,1s-1-0.5-1-1
		C16,3,16.1,1.9,15,2z"/>
	<path id="XMLID_1332_" class="st0" d="M16,15c0-0.5,0.5-1,1-1s1,0.5,1,1v0.5c0,1.4-1.1,2.5-2.5,2.5H15c-0.6,0-1-0.5-1-1
		c0-0.6,0.4-1,1-1C15,16,16.1,16.1,16,15z"/>
	<path id="XMLID_1330_" class="st0" d="M17,10L17,10c-0.5,0-1,0.4-1,1v1c0,0.5,0.5,1,1,1l0,0c0.5,0,1-0.5,1-1v-1
		C18,10.4,17.5,10,17,10z"/>
	<path id="XMLID_1324_" class="st0" d="M17,5L17,5c-0.5,0-1,0.5-1,1v1c0,0.6,0.5,1,1,1l0,0c0.5,0,1-0.4,1-1V6C18,5.4,17.5,5,17,5z"
		/>
	<path class="st0" d="M14,9c0-0.1,0-0.3-0.1-0.4c0,0,0,0,0-0.1c0-0.1-0.1-0.2-0.2-0.3c0,0,0,0,0,0l-4-4c-0.4-0.4-1-0.4-1.4,0
		c-0.4,0.4-0.4,1,0,1.4L10.6,8H5C4.4,8,4,8.4,4,9c0,0.6,0.4,1,1,1h5.6l-2.3,2.3c-0.4,0.4-0.4,1,0,1.4c0.4,0.4,1,0.4,1.4,0l4-4
		c0,0,0,0,0,0c0.1-0.1,0.1-0.2,0.2-0.3c0,0,0,0,0-0.1C14,9.3,14,9.1,14,9L14,9L14,9z"/>
</g>
</svg>
