<?xml version="1.0" encoding="UTF-8" standalone="no"?>
<svg width="14px" height="14px" viewBox="0 0 14 14" version="1.1" xmlns="http://www.w3.org/2000/svg" xmlns:xlink="http://www.w3.org/1999/xlink">
    <!-- Generator: Sketch 3.6.1 (26313) - http://www.bohemiancoding.com/sketch -->
    <title>less-than</title>
    <desc>Created with Sketch.</desc>
    <defs></defs>
    <g id="grid-filtering-icons" stroke="none" stroke-width="1" fill="none" fill-rule="evenodd">
        <g id="less-than" fill="#5C5C5C">
            <path d="M4.2929,6.2847 L9.2849,1.2927 C9.6749,0.9027 10.3089,0.9027 10.6989,1.2927 C11.0899,1.6837 11.0899,2.3167 10.6989,2.7067 L6.4109,6.9947 L10.6939,11.3037 C11.0829,11.6957 11.0799,12.3287 10.6879,12.7177 C10.2959,13.1067 9.6629,13.1047 9.2739,12.7127 L4.2899,7.6957 C3.9019,7.3047 3.9039,6.6737 4.2929,6.2847" id="Fill-1"></path>
        </g>
    </g>
</svg>