<?xml version="1.0" encoding="UTF-8" standalone="no"?>
<svg width="18px" height="18px" viewBox="0 0 18 18" version="1.1" xmlns="http://www.w3.org/2000/svg" xmlns:xlink="http://www.w3.org/1999/xlink">
    <!-- Generator: Sketch 3.6.1 (26313) - http://www.bohemiancoding.com/sketch -->
    <title>url</title>
    <desc>Created with Sketch.</desc>
    <defs></defs>
    <g id="standard-icons" stroke="none" stroke-width="1" fill="none" fill-rule="evenodd">
        <g id="url" fill="#5C5C5C">
            <path d="M9,0 C4.037,0 0,4.037 0,9 C0,13.963 4.037,18 9,18 C13.963,18 18,13.963 18,9 C18,4.037 13.963,0 9,0 M16,9 C16,10.074 15.75,11.089 15.315,12 L11,12 C9.984,12 10,11 10,11 C10,10.45 9.55,10 9,10 L7.167,10 C7.138,10 7.114,10.015 7.086,10.017 C7.056,10.015 7.031,10 7,10 C6.45,10 6,9.55 6,9 C6,8.45 6.45,8 7,8 L7,7.994 L9,8 C9.55,8 10,7.55 10,7 C10,7 10,6 11,6 L12,6 C12.55,6 13,5.55 13,5 L13,3.264 C14.811,4.531 16,6.628 16,9 M2,9 C2,8.663 2.032,8.334 2.078,8.01 C2.992,8.066 3,9 3,9 C3,9.55 3.45,10 4,10 C4,10 5,10.021 5,11 L5,12 C5,12.55 5.45,13 6,13 C7,13 7,14 7,14 L7,15.705 C4.113,14.842 2,12.164 2,9" id="Page-1"></path>
        </g>
    </g>
</svg>