<?xml version="1.0" encoding="UTF-8" standalone="no"?>
<svg width="18px" height="18px" viewBox="0 0 18 18" version="1.1" xmlns="http://www.w3.org/2000/svg" xmlns:xlink="http://www.w3.org/1999/xlink">
    <!-- Generator: Sketch 3.6.1 (26313) - http://www.bohemiancoding.com/sketch -->
    <title>secondary-menu-collapse-minus@1x</title>
    <desc>Created with Sketch.</desc>
    <defs></defs>
    <g id="standard-icons" stroke="none" stroke-width="1" fill="none" fill-rule="evenodd">
        <g id="secondary-menu-collapse-minus" fill="#5C5C5C">
            <path d="M5,11 L13,11 C13.553,11 14,10.553 14,10 C14,9.447 13.553,9 13,9 L5,9 C4.447,9 4,9.447 4,10 C4,10.553 4.447,11 5,11" id="Page-1"></path>
        </g>
    </g>
</svg>