<?xml version="1.0" encoding="UTF-8" standalone="no"?>
<svg width="18px" height="18px" viewBox="0 0 18 18" version="1.1" xmlns="http://www.w3.org/2000/svg" xmlns:xlink="http://www.w3.org/1999/xlink">
    <!-- Generator: Sketch 3.6.1 (26313) - http://www.bohemiancoding.com/sketch -->
    <title>list</title>
    <desc>Created with Sketch.</desc>
    <defs></defs>
    <g id="standard-icons" stroke="none" stroke-width="1" fill="none" fill-rule="evenodd">
        <g id="list" fill="#5C5C5C">
            <path d="M17.99,3.99 C17.99,3.443 17.547,3 17,3 L4.98,3 C4.433,3 3.99,3.443 3.99,3.99 L3.99,4.01 C3.99,4.557 4.433,5 4.98,5 L17,5 C17.547,5 17.99,4.557 17.99,4.01 L17.99,3.99 Z M1.01,3 L0.99,3 C0.443,3 0,3.443 0,3.99 L0,4.01 C0,4.557 0.443,5 0.99,5 L1.01,5 C1.556,5 2,4.557 2,4.01 L2,3.99 C2,3.443 1.556,3 1.01,3 L1.01,3 Z M17.99,8.99 C17.99,8.443 17.547,8 17,8 L4.98,8 C4.433,8 3.99,8.443 3.99,8.99 L3.99,9.01 C3.99,9.557 4.433,10 4.98,10 L17,10 C17.547,10 17.99,9.557 17.99,9.01 L17.99,8.99 Z M1.01,8 L0.99,8 C0.443,8 0,8.443 0,8.99 L0,9.01 C0,9.557 0.443,10 0.99,10 L1.01,10 C1.556,10 2,9.557 2,9.01 L2,8.99 C2,8.443 1.556,8 1.01,8 L1.01,8 Z M17.99,13.99 C17.99,13.443 17.547,13 17,13 L4.98,13 C4.433,13 3.99,13.443 3.99,13.99 L3.99,14.01 C3.99,14.557 4.433,15 4.98,15 L17,15 C17.547,15 17.99,14.557 17.99,14.01 L17.99,13.99 Z M1.01,13 L0.99,13 C0.443,13 0,13.443 0,13.99 L0,14.01 C0,14.557 0.443,15 0.99,15 L1.01,15 C1.556,15 2,14.557 2,14.01 L2,13.99 C2,13.443 1.556,13 1.01,13 L1.01,13 Z" id="Page-1"></path>
        </g>
    </g>
</svg>