<?xml version="1.0" encoding="UTF-8" standalone="no"?>
<svg width="18px" height="18px" viewBox="0 0 18 18" version="1.1" xmlns="http://www.w3.org/2000/svg" xmlns:xlink="http://www.w3.org/1999/xlink">
    <!-- Generator: Sketch 3.6.1 (26313) - http://www.bohemiancoding.com/sketch -->
    <title>document</title>
    <desc>Created with Sketch.</desc>
    <defs></defs>
    <g id="standard-icons" stroke="none" stroke-width="1" fill="none" fill-rule="evenodd">
        <g id="document" fill="#5C5C5C">
            <path d="M15.414,3.414 L12.586,0.586 C12.211,0.211 11.702,0 11.171,0 L4.5,0 C3.122,0 2,1.121 2,2.5 L2,15.5 C2,16.879 3.122,18 4.5,18 L13.5,18 C14.878,18 16,16.879 16,15.5 L16,4.828 C16,4.298 15.789,3.789 15.414,3.414 L15.414,3.414 Z M14,15.5 C14,15.776 13.776,16 13.5,16 L4.5,16 C4.224,16 4,15.776 4,15.5 L4,2.5 C4,2.224 4.224,2 4.5,2 L10,2 L10,5 C10,5.55 10.45,6 11,6 L14,6 L14,15.5 Z" id="Page-1"></path>
        </g>
    </g>
</svg>