<?xml version="1.0" encoding="UTF-8" standalone="no"?>
<svg width="18px" height="18px" viewBox="0 0 18 18" version="1.1" xmlns="http://www.w3.org/2000/svg" xmlns:xlink="http://www.w3.org/1999/xlink">
    <!-- Generator: Sketch 3.6.1 (26313) - http://www.bohemiancoding.com/sketch -->
    <title>bookmark-filled</title>
    <desc>Created with Sketch.</desc>
    <defs></defs>
    <g id="standard-icons" stroke="none" stroke-width="1" fill="none" fill-rule="evenodd">
        <g id="bookmark-filled" fill="#5C5C5C">
            <path d="M15,2.5 C15,1.125 13.875,0 12.5,0 L5.5,0 C4.125,0 3,1.125 3,2.5 L3,17 C3.002,16.999 3.002,16.979 3.004,16.978 C2.998,17.243 3.092,17.508 3.294,17.71 C3.686,18.098 4.318,18.096 4.708,17.706 L9,13 L13.296,17.711 C13.69,18.1 14.323,18.096 14.71,17.704 C14.916,17.495 15.013,17.22 14.999,16.949 C15.002,16.95 14.997,16.951 14.999,16.952 L15,2.5" id="Fill-1"></path>
        </g>
    </g>
</svg>