<?xml version="1.0" encoding="utf-8"?>
<!-- Generator: Adobe Illustrator 22.1.0, SVG Export Plug-In . SVG Version: 6.00 Build 0)  -->
<svg version="1.1" id="Layer_1" xmlns="http://www.w3.org/2000/svg" xmlns:xlink="http://www.w3.org/1999/xlink" x="0px" y="0px"
	 width="18px" height="18px" viewBox="0 0 18 18" style="enable-background:new 0 0 18 18;" xml:space="preserve">
<style type="text/css">
	.st0{fill-rule:evenodd;clip-rule:evenodd;fill:#5C5C5C;}
</style>
<g>
	<path id="ledger" class="st0" d="M10,14.9v-1.8c0.5-0.5,3.2-1,6-1.1v2C13.1,14.1,11.2,14.4,10,14.9z M2,14v-2c4.7,0.1,5.8,1,6,1.2
		v1.7C6.7,14.4,4.7,14.1,2,14z M2,2c2.8,0.1,5.5,0.6,6,1.1v7.8c-1.3-0.5-3.3-0.8-6-0.9V2z M16,2v8c-2.9,0.1-4.8,0.4-6,0.9V3.2
		C10.2,3,11.3,2.1,16,2z M17,0c-3.9,0-6.6,0.5-8,1.4C7.4,0.3,4,0,1,0h0C0.7,0,0.5,0.1,0.3,0.3C0.1,0.5,0,0.7,0,1v14c0,0.6,0.4,1,1,1
		c5.7,0,6.9,1,7,1.2C8.1,17.6,8.5,18,9,18h0c0.5,0,0.9-0.4,1-0.9c0.5-0.6,3.8-1.1,7-1.1c0.6,0,1-0.4,1-1V1C18,0.4,17.6,0,17,0z"/>
</g>
</svg>
