<?xml version="1.0" encoding="UTF-8" standalone="no"?>
<svg width="18px" height="18px" viewBox="0 0 18 18" version="1.1" xmlns="http://www.w3.org/2000/svg" xmlns:xlink="http://www.w3.org/1999/xlink">
    <!-- Generator: Sketch 3.6.1 (26313) - http://www.bohemiancoding.com/sketch -->
    <title>previous-page</title>
    <desc>Created with Sketch.</desc>
    <defs></defs>
    <g id="standard-icons" stroke="none" stroke-width="1" fill="none" fill-rule="evenodd">
        <g id="previous-page" fill="#5C5C5C">
            <path d="M12.9997,14.2691 C12.9997,14.8731 12.1127,15.2161 11.6387,14.8491 L5.3097,9.5801 C4.9317,9.2881 4.8817,8.7121 5.2597,8.4201 L11.6627,3.1511 C12.1387,2.7841 12.9997,3.1271 12.9997,3.7311 L12.9997,14.2691" id="Fill-1"></path>
        </g>
    </g>
</svg>