<?xml version="1.0" encoding="UTF-8" standalone="no"?>
<svg width="18px" height="18px" viewBox="0 0 18 18" version="1.1" xmlns="http://www.w3.org/2000/svg" xmlns:xlink="http://www.w3.org/1999/xlink">
    <!-- Generator: Sketch 3.6.1 (26313) - http://www.bohemiancoding.com/sketch -->
    <title>calendar</title>
    <desc>Created with Sketch.</desc>
    <defs></defs>
    <g id="standard-icons" stroke="none" stroke-width="1" fill="none" fill-rule="evenodd">
        <g id="calendar" fill="#5C5C5C">
            <path d="M15.5,2 L15,2 L15,0.99 C15,0.443 14.557,0 14.01,0 L13.99,0 C13.443,0 13,0.443 13,0.99 L13,2 L5,2 L5,0.99 C5,0.443 4.557,0 4.01,0 L3.99,0 C3.443,0 3,0.443 3,0.99 L3,2 L2.5,2 C1.122,2 0,3.122 0,4.5 L0,15.5 C0,16.878 1.122,18 2.5,18 L15.5,18 C16.878,18 18,16.878 18,15.5 L18,4.5 C18,3.122 16.878,2 15.5,2 L15.5,2 Z M16,15.5 C16,15.776 15.776,16 15.5,16 L2.5,16 C2.224,16 2,15.776 2,15.5 L2,8.5 C2,8.224 2.224,8 2.5,8 L15.5,8 C15.776,8 16,8.224 16,8.5 L16,15.5 Z" id="Page-1"></path>
        </g>
    </g>
</svg>