<?xml version="1.0" encoding="UTF-8" standalone="no"?>
<svg width="14px" height="14px" viewBox="0 0 14 14" version="1.1" xmlns="http://www.w3.org/2000/svg" xmlns:xlink="http://www.w3.org/1999/xlink">
    <!-- Generator: Sketch 3.6.1 (26313) - http://www.bohemiancoding.com/sketch -->
    <title>video</title>
    <desc>Created with Sketch.</desc>
    <defs>
        <path id="path-1" d="M6.99985,14 L0,14 L0,0 L6.99985,0 L13.9997,0 L13.9997,14 L6.99985,14 L6.99985,14 Z"></path>
    </defs>
    <g id="standard-tree" stroke="none" stroke-width="1" fill="none" fill-rule="evenodd">
        <g id="video">
            <g id="Page-1">
                <g id="Group-3">
                    <mask id="mask-2" fill="white">
                        <use xlink:href="#path-1"></use>
                    </mask>
                    <g id="Clip-2"></g>
                    <path d="M12.0087,7 L11.9997,11 L12.0177,11 L12.0187,11.599 C12.0187,11.988 11.5747,12 11.5237,12 L2.4767,12 C2.2027,12 1.9817,11.775 1.9817,11.5 L1.9827,11 L1.9997,11 L1.9917,7 L1.9997,3 L1.9827,3 L1.9817,2.5 C1.9817,2.225 2.2027,2 2.4767,2 L11.5237,2 C11.5747,2 12.0187,2.012 12.0187,2.401 L12.0177,3 L11.9997,3 L12.0087,7 Z M11.5237,0 L2.4767,0 C1.0877,0 -0.0003,1.055 -0.0003,2.401 L-0.0003,2.5 L-0.0003,3 L-0.0003,11 L-0.0003,11.5 L-0.0003,11.599 C-0.0003,12.945 1.0877,14 2.4767,14 L11.5237,14 C12.9127,14 13.9997,12.945 13.9997,11.599 L13.9997,11 L13.9997,3 L13.9997,2.401 C13.9997,1.055 12.9127,0 11.5237,0 L11.5237,0 Z" id="Fill-1" fill="#5C5D5D" mask="url(#mask-2)"></path>
                </g>
                <path d="M5,4.8831 L5,9.1171 C5,9.5051 5.424,9.7461 5.757,9.5461 L9.285,7.4291 C9.609,7.2341 9.609,6.7651 9.285,6.5711 L5.757,4.4541 C5.424,4.2541 5,4.4941 5,4.8831" id="Fill-4" fill="#5C5D5D"></path>
            </g>
        </g>
    </g>
</svg>