<?xml version="1.0" encoding="UTF-8" standalone="no"?>
<svg width="18px" height="18px" viewBox="0 0 18 18" version="1.1" xmlns="http://www.w3.org/2000/svg" xmlns:xlink="http://www.w3.org/1999/xlink">
    <!-- Generator: Sketch 3.6.1 (26313) - http://www.bohemiancoding.com/sketch -->
    <title>check</title>
    <desc>Created with Sketch.</desc>
    <defs></defs>
    <g id="standard-icons" stroke="none" stroke-width="1" fill="none" fill-rule="evenodd">
        <g id="check" fill="#5C5C5C">
            <path d="M6.0633,14.9993 C5.8093,14.9993 5.5553,14.9033 5.3603,14.7113 L0.2973,9.7103 C-0.0957,9.3223 -0.0997,8.6893 0.2893,8.2963 C0.6763,7.9033 1.3103,7.9003 1.7033,8.2883 L6.0563,12.5873 L15.2913,3.2943 C15.6813,2.9043 16.3143,2.9013 16.7053,3.2893 C17.0973,3.6793 17.0993,4.3123 16.7093,4.7043 L6.7723,14.7043 C6.5763,14.9003 6.3193,14.9993 6.0633,14.9993" id="Fill-1"></path>
        </g>
    </g>
</svg>