<?xml version="1.0" encoding="UTF-8" standalone="no"?>
<svg width="14px" height="14px" viewBox="0 0 14 14" version="1.1" xmlns="http://www.w3.org/2000/svg" xmlns:xlink="http://www.w3.org/1999/xlink">
    <!-- Generator: Sketch 3.6.1 (26313) - http://www.bohemiancoding.com/sketch -->
    <title>bmp</title>
    <desc>Created with Sketch.</desc>
    <defs>
        <path id="path-1" d="M0,14 L13,14 L13,0 L0,0 L0,14 Z"></path>
    </defs>
    <g id="standard-tree" stroke="none" stroke-width="1" fill="none" fill-rule="evenodd">
        <g id="bmp">
            <g id="Page-1" transform="translate(1.000000, 0.000000)">
                <mask id="mask-2" fill="white">
                    <use xlink:href="#path-1"></use>
                </mask>
                <g id="Clip-4"></g>
                <path d="M2,12 L3,12 L3,11 L2,11 L2,12 Z" id="Fill-3" fill="#5C5D5D" mask="url(#mask-2)"></path>
                <path d="M2,10 L3,10 L3,9 L2,9 L2,10 Z" id="Fill-5" fill="#5C5D5D" mask="url(#mask-2)"></path>
                <path d="M10,10 L11,10 L11,9 L10,9 L10,10 Z" id="Fill-6" fill="#5C5D5D" mask="url(#mask-2)"></path>
            </g>
            <path d="M13,11 L11,11 L11,13 L10,13 L10,8 L11,8 L13,8 L13,11 Z M9,13 L8,13 L8,10 L7,10 L7,13 L6,13 L6,8 L7,8 L7,9 L8,9 L8,8 L9,8 L9,13 Z M5,10 L5,11 L5,12 C5,12.552 4.552,13 4,13 L2,13 L2,8 L4,8 C4.552,8 5,8.448 5,9 L5,10 Z M3,2.5 C3,2.224 3.224,2 3.5,2 L8,2 L8,4 C8,4.55 8.45,5 9,5 L12,5 L12,6.5 C12,6.776 11.776,7 11.5,7 L3.5,7 C3.224,7 3,6.776 3,6.5 L3,2.5 Z M13.414,3.414 L10.586,0.586 C10.211,0.211 9.702,0 9.172,0 L8,0 L3.5,0 C2.119,0 1,1.119 1,2.5 L1,6 L1,11.5 C1,12.881 2.119,14 3.5,14 L8.999,14 L11.5,14 C12.881,14 14,12.881 14,11.5 L14,7 L14,6 L14,4.828 C14,4.298 13.789,3.789 13.414,3.414 L13.414,3.414 Z" id="Page-1" fill="#5C5D5D"></path>
        </g>
    </g>
</svg>