<?xml version="1.0" encoding="UTF-8" standalone="no"?>
<svg width="18px" height="18px" viewBox="0 0 18 18" version="1.1" xmlns="http://www.w3.org/2000/svg" xmlns:xlink="http://www.w3.org/1999/xlink">
    <!-- Generator: Sketch 3.6.1 (26313) - http://www.bohemiancoding.com/sketch -->
    <title>right-arrow</title>
    <desc>Created with Sketch.</desc>
    <defs></defs>
    <g id="standard-icons" stroke="none" stroke-width="1" fill="none" fill-rule="evenodd">
        <g id="right-arrow" fill="#5C5C5C">
            <path d="M1,7.9998 L14.564,7.9998 L9.234,2.7108 C8.842,2.3228 8.838,1.6908 9.226,1.2978 C9.615,0.9038 10.247,0.9008 10.641,1.2888 L17.703,8.2888 C18.096,8.6768 18.1,9.3098 17.712,9.7028 L10.712,16.7648 C10.516,16.9628 10.258,17.0628 10,17.0628 C9.746,17.0628 9.492,16.9658 9.297,16.7738 C8.904,16.3858 8.9,15.7528 9.288,15.3598 L14.606,9.9998 L1,9.9998 C0.447,9.9998 0,9.5518 0,8.9998 C0,8.4478 0.447,7.9998 1,7.9998" id="Fill-1"></path>
        </g>
    </g>
</svg>