<?xml version="1.0" encoding="UTF-8" standalone="no"?>
<svg width="18px" height="18px" viewBox="0 0 18 18" version="1.1" xmlns="http://www.w3.org/2000/svg" xmlns:xlink="http://www.w3.org/1999/xlink">
    <!-- Generator: Sketch 3.6.1 (26313) - http://www.bohemiancoding.com/sketch -->
    <title>audio</title>
    <desc>Created with Sketch.</desc>
    <defs></defs>
    <g id="standard-icons" stroke="none" stroke-width="1" fill="none" fill-rule="evenodd">
        <g id="audio" fill="#5C5C5C">
            <path d="M14.4592,1.1605 L8.2222,5.1705 L5.5002,5.1705 C4.1252,5.1705 3.0002,6.2955 3.0002,7.6705 L3.0002,10.6705 C3.0002,12.0455 4.1252,13.1705 5.5002,13.1705 L8.2222,13.1705 L14.4592,17.1795 C15.1252,17.6075 16.0002,17.1295 16.0002,16.3385 L16.0002,10.6705 L16.0002,7.6705 L16.0002,2.0015 C16.0002,1.2105 15.1252,0.7325 14.4592,1.1605" id="Fill-1"></path>
        </g>
    </g>
</svg>