<?xml version="1.0" encoding="UTF-8" standalone="no"?>
<svg width="14px" height="14px" viewBox="0 0 14 14" version="1.1" xmlns="http://www.w3.org/2000/svg" xmlns:xlink="http://www.w3.org/1999/xlink">
    <!-- Generator: Sketch 3.6.1 (26313) - http://www.bohemiancoding.com/sketch -->
    <title>equals</title>
    <desc>Created with Sketch.</desc>
    <defs></defs>
    <g id="grid-filtering-icons" stroke="none" stroke-width="1" fill="none" fill-rule="evenodd">
        <g id="equals" fill="#5C5C5C">
            <path d="M12.99,5.01 C12.99,5.557 12.547,6 12,6 L1.99,6 C1.443,6 1,5.557 1,5.01 L1,4.99 C1,4.443 1.443,4 1.99,4 L12,4 C12.547,4 12.99,4.443 12.99,4.99 L12.99,5.01 Z M12.99,9.01 C12.99,9.557 12.547,10 12,10 L1.99,10 C1.443,10 1,9.557 1,9.01 L1,8.99 C1,8.443 1.443,8 1.99,8 L12,8 C12.547,8 12.99,8.443 12.99,8.99 L12.99,9.01 Z" id="Page-1"></path>
        </g>
    </g>
</svg>