<?xml version="1.0" encoding="UTF-8" standalone="no"?>
<svg width="18px" height="18px" viewBox="0 0 18 18" version="1.1" xmlns="http://www.w3.org/2000/svg" xmlns:xlink="http://www.w3.org/1999/xlink">
    <!-- Generator: Sketch 3.6.1 (26313) - http://www.bohemiancoding.com/sketch -->
    <title>drill-down</title>
    <desc>Created with Sketch.</desc>
    <defs></defs>
    <g id="standard-icons" stroke="none" stroke-width="1" fill="none" fill-rule="evenodd">
        <g id="drill-down" fill="#5C5C5C">
            <path d="M15.5,0 L2.5,0 C1.121,0 0,1.122 0,2.5 L0,15.5 C0,16.879 1.121,18 2.5,18 L15.5,18 C16.878,18 18,16.879 18,15.5 L18,2.5 C18,1.122 16.878,0 15.5,0 L15.5,0 Z M16,15.5 C16,15.775 15.775,16 15.5,16 L2.5,16 C2.225,16 2,15.775 2,15.5 L2,6.5 C2,6.224 2.224,6 2.5,6 L15.5,6 C15.776,6 16,6.224 16,6.5 L16,15.5 Z M9,8.731 L9,10 L5,10 C4.447,10 4,10.447 4,11 C4,11.553 4.447,12 5,12 L9,12 L9,13.269 C9,13.873 9.887,14.216 10.362,13.849 L13.69,11.58 C14.068,11.288 14.119,10.712 13.741,10.42 L10.337,8.151 C9.861,7.784 9,8.127 9,8.731 L9,8.731 Z" id="Page-1"></path>
        </g>
    </g>
</svg>