<?xml version="1.0" encoding="utf-8"?>
<!-- Generator: Adobe Illustrator 22.1.0, SVG Export Plug-In . SVG Version: 6.00 Build 0)  -->
<svg version="1.1" id="Layer_1" xmlns="http://www.w3.org/2000/svg" xmlns:xlink="http://www.w3.org/1999/xlink" x="0px" y="0px"
	 width="18px" height="18px" viewBox="0 0 18 18" style="enable-background:new 0 0 18 18;" xml:space="preserve">
<style type="text/css">
	.st0{clip-path:url(#SVGID_2_);}
	.st1{opacity:0.7;clip-path:url(#SVGID_4_);fill:#5C5C5C;}
</style>
<g>
	<defs>
		<path id="SVGID_1_" d="M17.4,14.5l-5.9-6c0.4-0.9,0.6-1.8,0.5-2.9C11.8,2,8.3-0.5,4.9,0.1c-0.8,0.1-1,1.2-0.5,1.7l1.4,1.4
			c1,1,2.4,2.3,1.2,3.8C5.7,8.4,4.3,7.2,3.2,6.2L1.7,4.6C1.1,4,0,4.5,0,5.3c-0.3,3.3,2.1,6.3,5.4,6.7c1,0.1,2.1-0.1,3-0.5l5.9,6
			c0.8,0.8,2.1,0.8,2.8,0l0.1-0.1C18.2,16.6,18.2,15.3,17.4,14.5"/>
	</defs>
	<use xlink:href="#SVGID_1_"  style="overflow:visible;fill-rule:evenodd;clip-rule:evenodd;fill:#5C5C5C;"/>
	<clipPath id="SVGID_2_">
		<use xlink:href="#SVGID_1_"  style="overflow:visible;"/>
	</clipPath>
	<g class="st0">
		<defs>
			<rect id="SVGID_3_" x="-19.8" y="-371.5" width="1300.3" height="1277.9"/>
		</defs>
		<use xlink:href="#SVGID_3_"  style="overflow:visible;fill:#5C5C5C;"/>
		<clipPath id="SVGID_4_">
			<use xlink:href="#SVGID_3_"  style="overflow:visible;"/>
		</clipPath>
		<rect x="-4.5" y="-4.6" class="st1" width="27" height="27.1"/>
	</g>
</g>
</svg>
