<?xml version="1.0" encoding="utf-8"?>
<!-- Generator: Adobe Illustrator 16.0.5, SVG Export Plug-In . SVG Version: 6.00 Build 0)  -->
<!DOCTYPE svg PUBLIC "-//W3C//DTD SVG 1.1//EN" "http://www.w3.org/Graphics/SVG/1.1/DTD/svg11.dtd">
<svg version="1.1" id="Layer_1" xmlns="http://www.w3.org/2000/svg" xmlns:xlink="http://www.w3.org/1999/xlink" x="0px" y="0px"
	 width="18px" height="18px" viewBox="0 0 18 18" enable-background="new 0 0 18 18" xml:space="preserve">
<path fill="#ABAEB7" d="M5.707,5.707L2.414,9l3.293,3.293c0.391,0.391,0.391,1.023,0,1.414C5.512,13.902,5.256,14,5,14
	s-0.512-0.098-0.707-0.293l-4-4c-0.391-0.391-0.391-1.023,0-1.414l4-4c0.391-0.391,1.023-0.391,1.414,0S6.098,5.316,5.707,5.707z
	 M17.707,8.293l-4-4c-0.391-0.391-1.023-0.391-1.414,0s-0.391,1.023,0,1.414L15.586,9l-3.293,3.293
	c-0.391,0.391-0.391,1.023,0,1.414C12.488,13.902,12.744,14,13,14s0.512-0.098,0.707-0.293l4-4
	C18.098,9.316,18.098,8.684,17.707,8.293z M10.164,2.014C9.621,1.913,9.103,2.29,9.014,2.836l-2,12
	c-0.091,0.544,0.277,1.061,0.822,1.15C7.892,15.996,7.946,16,8.001,16c0.48,0,0.904-0.347,0.985-0.836l2-12
	C11.077,2.62,10.709,2.104,10.164,2.014z"/>
</svg>
