<?xml version="1.0" encoding="utf-8"?>
<!-- Generator: Adobe Illustrator 16.0.5, SVG Export Plug-In . SVG Version: 6.00 Build 0)  -->
<!DOCTYPE svg PUBLIC "-//W3C//DTD SVG 1.1//EN" "http://www.w3.org/Graphics/SVG/1.1/DTD/svg11.dtd">
<svg version="1.1" id="Layer_1" xmlns="http://www.w3.org/2000/svg" xmlns:xlink="http://www.w3.org/1999/xlink" x="0px" y="0px"
	 width="18px" height="18px" viewBox="0 0 18 18" enable-background="new 0 0 18 18" xml:space="preserve">
<path fill="#ABAEB7" d="M5.064,3.857C5.064,1.727,6.791,0,8.921,0c2.131,0,3.857,1.727,3.857,3.857c0,2.131-1.727,3.857-3.857,3.857
	C6.791,7.714,5.064,5.988,5.064,3.857z M17.998,16.54C17.302,12.264,13.474,9,9,9c-4.473,0-8.264,3.264-8.961,7.54
	C-0.086,17.309,0.539,18,1.318,18h15.4C17.497,18,18.124,17.309,17.998,16.54z"/>
</svg>
