<?xml version="1.0" encoding="UTF-8" standalone="no"?>
<svg width="14px" height="14px" viewBox="0 0 14 14" version="1.1" xmlns="http://www.w3.org/2000/svg" xmlns:xlink="http://www.w3.org/1999/xlink">
    <!-- Generator: Sketch 3.6.1 (26313) - http://www.bohemiancoding.com/sketch -->
    <title>pdf</title>
    <desc>Created with Sketch.</desc>
    <defs></defs>
    <g id="standard-tree" stroke="none" stroke-width="1" fill="none" fill-rule="evenodd">
        <g id="pdf" fill="#5C5D5D">
            <g id="Page-1" transform="translate(1.000000, 0.000000)">
                <path d="M6,12 L7,12 L7,8.999 L6,8.999 L6,12 Z" id="Fill-1"></path>
                <path d="M2,10 L3,10 L3,8.999 L2,8.999 L2,10 Z" id="Fill-2"></path>
                <path d="M12,9 L10,9 L10,10 L11,10 L11,11 L10,11 L10,13 L9,13 L9,8 L10,8 L12,8 L12,9 Z M8,12 C8,12.552 7.552,13 7,13 L5,13 L5,8 L7,8 C7.552,8 8,8.448 8,9 L8,12 Z M4,9 L4,10 L4,11 L2,11 L2,13 L1,13 L1,8 L2,8 L4,8 L4,9 Z M2,2.5 C2,2.224 2.224,2 2.5,2 L7,2 L7,4 C7,4.55 7.45,5 8,5 L11,5 L11,7 L2.5,7 C2.224,7 2,6.776 2,6.5 L2,2.5 Z M12.414,3.414 L9.586,0.586 C9.211,0.211 8.702,0 8.172,0 L7,0 L2.5,0 C1.119,0 0,1.119 0,2.5 L0,6 L0,11.5 C0,12.881 1.119,14 2.5,14 L7.999,14 L10.5,14 C11.881,14 13,12.881 13,11.5 L13,7 L13,6 L13,4.828 C13,4.298 12.789,3.789 12.414,3.414 L12.414,3.414 Z" id="Fill-3"></path>
            </g>
        </g>
    </g>
</svg>