<?xml version="1.0" encoding="UTF-8" standalone="no"?>
<svg width="18px" height="18px" viewBox="0 0 18 18" version="1.1" xmlns="http://www.w3.org/2000/svg" xmlns:xlink="http://www.w3.org/1999/xlink">
    <!-- Generator: Sketch 3.6.1 (26313) - http://www.bohemiancoding.com/sketch -->
    <title>star</title>
    <desc>Created with Sketch.</desc>
    <defs></defs>
    <g id="standard-icons" stroke="none" stroke-width="1" fill="none" fill-rule="evenodd">
        <g id="star" fill="#5C5C5C">
            <path d="M9.8182,0.5901 L11.5732,5.9891 L17.1392,5.9891 C17.9812,5.9891 18.3202,7.0631 17.6272,7.5461 L13.1622,10.6481 L14.8912,15.8781 C15.1542,16.6771 14.2482,17.3441 13.5722,16.8511 L9.0022,13.5151 L4.4302,16.8071 C3.7522,17.2951 2.8512,16.6211 3.1162,15.8251 L4.8432,10.6471 L0.3712,7.5451 C-0.3208,7.0611 0.0192,5.9891 0.8602,5.9891 L6.4322,5.9891 L8.1862,0.6011 C8.4452,-0.1929 9.5592,-0.2039 9.8182,0.5901" id="Fill-1"></path>
        </g>
    </g>
</svg>