<?xml version="1.0" encoding="UTF-8" standalone="no"?>
<svg width="18px" height="18px" viewBox="0 0 18 18" version="1.1" xmlns="http://www.w3.org/2000/svg" xmlns:xlink="http://www.w3.org/1999/xlink">
    <!-- Generator: Sketch 3.6.1 (26313) - http://www.bohemiancoding.com/sketch -->
    <title>cancel</title>
    <desc>Created with Sketch.</desc>
    <defs></defs>
    <g id="standard-icons" stroke="none" stroke-width="1" fill="none" fill-rule="evenodd">
        <g id="cancel" fill="#5C5C5C">
            <path d="M9,0 C4.037,0 0,4.037 0,9 C0,13.963 4.037,18 9,18 C13.963,18 18,13.963 18,9 C18,4.037 13.963,0 9,0 M2,9 C2,5.141 5.141,2 9,2 C10.57,2 12.015,2.526 13.184,3.402 L3.402,13.184 C2.526,12.015 2,10.57 2,9 M9,16 C7.43,16 5.985,15.474 4.816,14.598 L14.598,4.816 C15.474,5.985 16,7.43 16,9 C16,12.859 12.859,16 9,16" id="Page-1"></path>
        </g>
    </g>
</svg>