<?xml version="1.0" encoding="UTF-8" standalone="no"?>
<svg width="18px" height="18px" viewBox="0 0 18 18" version="1.1" xmlns="http://www.w3.org/2000/svg" xmlns:xlink="http://www.w3.org/1999/xlink">
    <!-- Generator: Sketch 3.6.1 (26313) - http://www.bohemiancoding.com/sketch -->
    <title>launch</title>
    <desc>Created with Sketch.</desc>
    <defs></defs>
    <g id="standard-icons" stroke="none" stroke-width="1" fill="none" fill-rule="evenodd">
        <g id="launch" fill="#5C5C5C">
            <path d="M6.293,11.707 C6.684,12.098 7.316,12.098 7.707,11.707 L14,5.414 L14,9 C14,9.552 14.447,10 15,10 C15.553,10 16,9.552 16,9 L16,3 C16,2.448 15.553,2 15,2 L9,2 C8.447,2 8,2.448 8,3 C8,3.552 8.447,4 9,4 L12.586,4 L6.293,10.293 C5.902,10.684 5.902,11.316 6.293,11.707 M15.01,12 C14.463,12 14.019,12.447 14.019,13 L14.019,13.599 C14.019,13.988 13.574,14 13.523,14 L4.477,14 C4.426,14 3.982,13.988 3.982,13.599 L3.982,4.5 C3.982,4.225 4.203,4 4.477,4 L5.01,4 C5.557,4 6,3.553 6,3 C6,2.447 5.557,2 5.01,2 L4.477,2 C3.111,2 2,3.121 2,4.5 L2,13.599 C2,14.945 3.088,16 4.477,16 L13.523,16 C14.912,16 16,14.945 16,13.599 L16,13 C16,12.447 15.557,12 15.01,12" id="Page-1"></path>
        </g>
    </g>
</svg>