<?xml version="1.0" encoding="UTF-8"?>
<svg width="60px" height="60px" viewBox="0 0 60 60" version="1.1" xmlns="http://www.w3.org/2000/svg" xmlns:xlink="http://www.w3.org/1999/xlink">
    <!-- Generator: Sketch 51.3 (57544) - http://www.bohemiancoding.com/sketch -->
    <title>no-event</title>
    <desc>Created with Sketch.</desc>
    <defs></defs>
    <g id="Page-1" stroke="none" stroke-width="1" fill="none" fill-rule="evenodd">
        <g id="no-events" transform="translate(-3.000000, -3.000000)">
            <g id="no-event" transform="translate(3.000000, 3.000000)">
                <g>
                    <path d="M43,10 C41.896,10 41,9.104 41,8 L41,2.443 C41,1.339 41.896,0.443 43,0.443 C44.104,0.443 45,1.339 45,2.443 L45,8 C45,9.104 44.104,10 43,10" id="Fill-1" fill="#368AC0"></path>
                    <path d="M17,10 C15.896,10 15,9.104 15,8 L15,2.443 C15,1.339 15.896,0.443 17,0.443 C18.104,0.443 19,1.339 19,2.443 L19,8 C19,9.104 18.104,10 17,10" id="Fill-3" fill="#368AC0"></path>
                    <path d="M47,5 L47,8 C47,10.206 45.206,12 43,12 C40.794,12 39,10.206 39,8 L39,5 L21,5 L21,8 C21,10.206 19.206,12 17,12 C14.794,12 13,10.206 13,8 L13,5 L0,5 L0,60 L60,60 L60,5 L47,5 Z" id="Fill-5" fill="#8DC9E6"></path>
                    <path d="M37.4141,36.5859 C38.1951,37.3669 38.1951,38.6329 37.4141,39.4139 C37.0231,39.8049 36.5121,39.9999 36.0001,39.9999 C35.4881,39.9999 34.9761,39.8049 34.5861,39.4139 L30.5001,35.3279 L26.4141,39.4139 C26.0231,39.8049 25.5121,39.9999 25.0001,39.9999 C24.4881,39.9999 23.9761,39.8049 23.5861,39.4139 C22.8051,38.6329 22.8051,37.3669 23.5861,36.5859 L27.6721,32.4999 L23.5861,28.4139 C22.8051,27.6329 22.8051,26.3669 23.5861,25.5859 C24.3671,24.8049 25.6331,24.8049 26.4141,25.5859 L30.5001,29.6719 L34.5861,25.5859 C35.3671,24.8049 36.6331,24.8049 37.4141,25.5859 C38.1951,26.3669 38.1951,27.6329 37.4141,28.4139 L33.3281,32.4999 L37.4141,36.5859 Z" id="Fill-7" fill="#FFFFFF"></path>
                </g>
            </g>
        </g>
    </g>
</svg>