<?xml version="1.0" encoding="UTF-8" standalone="no"?>
<svg width="18px" height="18px" viewBox="0 0 18 18" version="1.1" xmlns="http://www.w3.org/2000/svg" xmlns:xlink="http://www.w3.org/1999/xlink">
    <!-- Generator: Sketch 3.6.1 (26313) - http://www.bohemiancoding.com/sketch -->
    <title>import</title>
    <desc>Created with Sketch.</desc>
    <defs></defs>
    <g id="standard-icons" stroke="none" stroke-width="1" fill="none" fill-rule="evenodd">
        <g id="import" fill="#5C5C5C">
            <path d="M6,7.731 L6,9 L3,9 C2.447,9 2,9.447 2,10 C2,10.553 2.447,11 3,11 L6,11 L6,12.269 C6,12.873 6.887,13.216 7.362,12.849 L10.69,10.58 C11.068,10.288 11.119,9.712 10.741,9.42 L7.337,7.151 C6.861,6.784 6,7.127 6,7.731 M15.414,3.414 L12.586,0.586 C12.211,0.211 11.702,0 11.171,0 L4.5,0 C3.119,0 2,1.119 2,2.5 L2,6 C2,6.553 2.448,7 3,7 C3.552,7 4,6.553 4,6 L4,2.5 C4,2.224 4.224,2 4.5,2 L10,2 L10,5 C10,5.55 10.45,6 11,6 L14,6 L14,15.5 C14,15.776 13.776,16 13.5,16 L4.5,16 C4.224,16 4,15.776 4,15.5 L4,14 C4,13.447 3.552,13 3,13 C2.448,13 2,13.447 2,14 L2,15.5 C2,16.881 3.119,18 4.5,18 L13.5,18 C14.881,18 16,16.881 16,15.5 L16,4.828 C16,4.298 15.789,3.789 15.414,3.414" id="Page-1"></path>
        </g>
    </g>
</svg>