<?xml version="1.0" encoding="UTF-8" standalone="no"?>
<svg width="14px" height="14px" viewBox="0 0 14 14" version="1.1" xmlns="http://www.w3.org/2000/svg" xmlns:xlink="http://www.w3.org/1999/xlink">
    <!-- Generator: Sketch 3.6.1 (26313) - http://www.bohemiancoding.com/sketch -->
    <title>image</title>
    <desc>Created with Sketch.</desc>
    <defs>
        <path id="path-1" d="M6.9998,14 L0,14 L0,0 L6.9998,0 L13.9996,0 L13.9996,14 L6.9998,14 L6.9998,14 Z"></path>
    </defs>
    <g id="standard-tree" stroke="none" stroke-width="1" fill="none" fill-rule="evenodd">
        <g id="image">
            <g id="Page-1">
                <g id="Group-3">
                    <mask id="mask-2" fill="white">
                        <use xlink:href="#path-1"></use>
                    </mask>
                    <g id="Clip-2"></g>
                    <path d="M2.4766,2 L11.5236,2 C11.5746,2 12.0186,2.012 12.0186,2.401 L11.9996,10 L10.0186,8 L8.0186,10 L4.9996,7 L1.9996,10 L1.9816,2.5 C1.9816,2.225 2.2036,2 2.4766,2 M11.5236,0 L2.4766,0 C1.0876,0 -0.0004,1.055 -0.0004,2.401 L-0.0004,2.5 L-0.0004,11.599 C-0.0004,12.945 1.0876,14 2.4766,14 L11.5236,14 C12.9126,14 13.9996,12.945 13.9996,11.599 L13.9996,11.5 L13.9996,2.401 C13.9996,1.055 12.9126,0 11.5236,0" id="Fill-1" fill="#5C5D5D" mask="url(#mask-2)"></path>
                </g>
                <path d="M10,4.5 C10,3.672 9.328,3 8.5,3 C7.672,3 7,3.672 7,4.5 C7,5.328 7.672,6 8.5,6 C9.328,6 10,5.328 10,4.5" id="Fill-4" fill="#5C5D5D"></path>
            </g>
        </g>
    </g>
</svg>