<?xml version="1.0" encoding="UTF-8"?>
<svg width="60px" height="60px" viewBox="0 0 60 60" version="1.1" xmlns="http://www.w3.org/2000/svg" xmlns:xlink="http://www.w3.org/1999/xlink">
    <!-- Generator: Sketch 51.3 (57544) - http://www.bohemiancoding.com/sketch -->
    <title>no-data</title>
    <desc>Created with Sketch.</desc>
    <defs></defs>
    <g id="Page-1" stroke="none" stroke-width="1" fill="none" fill-rule="evenodd">
        <g id="no-data" transform="translate(-3.000000, -3.000000)">
            <g transform="translate(3.000000, 3.000000)">
                <g>
                    <path d="M45,60 L38,60 C35.791,60 34,58.209 34,56 L34,15 C34,12.791 35.791,11 38,11 L45,11 C47.209,11 49,12.791 49,15 L49,56 C49,58.209 47.209,60 45,60" id="Fill-1" fill="#8DC9E6"></path>
                    <path d="M28,60 L21,60 C18.791,60 17,58.209 17,56 L17,15 C17,12.791 18.791,11 21,11 L28,11 C30.209,11 32,12.791 32,15 L32,56 C32,58.209 30.209,60 28,60" id="Fill-3" fill="#8DC9E6"></path>
                    <path d="M11,60 L4,60 C1.791,60 0,58.209 0,56 L0,15 C0,12.791 1.791,11 4,11 L11,11 C13.209,11 15,12.791 15,15 L15,56 C15,58.209 13.209,60 11,60" id="Fill-5" fill="#8DC9E6"></path>
                    <path d="M59.7256,13.8771 L52.7236,1.0501 C51.9526,-0.3659 50.0466,-0.3419 49.2756,1.0741 L42.2736,13.8651 C41.4986,15.2921 42.4576,17.0001 43.9976,17.0001 L58.0016,17.0001 C59.5416,17.0001 60.5006,15.3041 59.7256,13.8771" id="Fill-7" fill="#368AC0"></path>
                    <path d="M52,9.5001 C52,9.7761 51.822,10.0001 51.529,10.0001 L50.471,10.0001 C50.178,10.0001 50,9.7761 50,9.5001 L50,5.5001 C50,5.2241 50.178,5.0001 50.471,5.0001 L51.529,5.0001 C51.822,5.0001 52,5.2241 52,5.5001 L52,9.5001 Z" id="Fill-9" fill="#FFFFFF"></path>
                    <path d="M52,13.5001 C52,13.7761 51.822,14.0001 51.529,14.0001 L50.471,14.0001 C50.178,14.0001 50,13.7761 50,13.5001 L50,12.5001 C50,12.2241 50.178,12.0001 50.471,12.0001 L51.529,12.0001 C51.822,12.0001 52,12.2241 52,12.5001 L52,13.5001 Z" id="Fill-11" fill="#FFFFFF"></path>
                </g>
            </g>
        </g>
    </g>
</svg>